Project 1: Wrangling, Exploration, Visualization
…
nrow(distinct(sat, fy_gpa))

## [1] 282

nrow(study_hours) - nrow(distinct(joined, X1.x))

## [1] 42

nrow(sat) - nrow(distinct(joined, X1.y))

## [1] 871

study_hours %>% anti_join(sat, by = c(gpa = "fy_gpa"))

## # A tibble: 42 x 3
##       X1   gpa study_hours
##    <dbl> <dbl>       <dbl>
##  1     3  3.93          45
##  2     7  3.68          24
##  3    12  3.42           7
##  4    13  3.80          15
##  5    21  3.9           35
##  6    22  3.29          12
##  7    34  3.57          14
##  8    41  3.9           10
##  9    52  3.87          40
## 10    54  3.85          10
## #  with 32 more rows

sat %>% anti_join(study_hours, by = c(fy_gpa = "gpa"))

## # A tibble: 871 x 7
##       X1 sat_v sat_m hs_gpa fy_gpa sex   sat_sum
##    <dbl> <dbl> <dbl>  <dbl>  <dbl> <chr>   <dbl>
##  1     1    65    62   3.4    3.18 1         127
##  2     2    58    64   4      3.33 2         122
##  3     4    42    53   3.75   2.42 1          95
##  4     5    55    52   4      2.63 1         107
##  5     7    57    65   2.8    2.83 1         122
##  6     8    53    62   3.8    2.51 1         115
##  7    10    41    44   2.6    2.54 1          85
##  8    11    58    70   3.75   3.38 1         128
##  9    12    45    57   3.75   3.02 2         102
## 10    14    50    58   3.75   3.81 2         108
## #  with 861 more rows
…
